Read the OrganoSeg software output excel file. — read_excel_file • OrgSeg
…
    Arguments

    file_path
Path to the OrganoSeg output excel file.

    Value

A list of all excel sheets which is imported as separated tibbles.

    Examples

file_path = system.file("extdata", "test_data.xls", package = "OrgSeg")
read_excel_file(file_path)
#> $df1
#> # A tibble: 156 × 1
#>     Area
#>    <dbl>
#>  1  218.
#>  2  862.
#>  3 1194.
#>  4 3127.
#>  5  559.
#>  6  127.
#>  7  180.
#>  8  171.
#>  9  218.
#> 10  238.
#> # ℹ 146 more rows
#> 
#> $df2
#> # A tibble: 118 × 1
#>     Area
#>    <dbl>
#>  1  939.
#>  2  301.
#>  3  449.
#>  4  803.
#>  5  372.
#>  6  114.
#>  7  433.
#>  8  528.
#>  9  158.
#> 10  154.
#> # ℹ 108 more rows
#> 
#> $df3
#> # A tibble: 164 × 1
#>     Area
#>    <dbl>
#>  1 1119.
#>  2  127.
#>  3  686.
#>  4  405.
#>  5  233.
#>  6 1579.
#>  7  451.
#>  8 1397.
#>  9  480.
#> 10  807.
#> # ℹ 154 more rows
#> 
#> $df4
#> # A tibble: 113 × 1
#>     Area
#>    <dbl>
#>  1  983.
#>  2  860.
#>  3  794.
#>  4  515.
#>  5  873.
#>  6  178.
#>  7 1185.
#>  8  211.
#>  9  369.
#> 10  532.
#> # ℹ 103 more rows
#> 
#> $df5
#> # A tibble: 100 × 1
#>     Area
#>    <dbl>
#>  1  319.
#>  2  248.
#>  3  196.
#>  4  728.
#>  5 1245.
#>  6  216.
#>  7  704.
#>  8  299.
#>  9 1318.
#> 10 1942.
#> # ℹ 90 more rows
#> 
#> $df6
#> # A tibble: 83 × 1
#>     Area
#>    <dbl>
#>  1  587.
#>  2  264.
#>  3  196.
#>  4  253.
#>  5 1834.
#>  6 1296.
#>  7  433.
#>  8  391.
#>  9 2710.
#> 10  981.
#> # ℹ 73 more rows
#> 
#> $df7
#> # A tibble: 145 × 1
#>     Area
#>    <dbl>
#>  1  134.
#>  2 1205.
#>  3  739.
#>  4 1005.
#>  5 1744.
#>  6 1665.
#>  7 1507.
#>  8  391.
#>  9 1451.
#> 10  649.
#> # ℹ 135 more rows
#> 
#> $df8
#> # A tibble: 31 × 1
#>     Area
#>    <dbl>
#>  1  409.
#>  2 1324.
#>  3  748.
#>  4  495.
#>  5  128.
#>  6  589.
#>  7  240.
#>  8  125.
#>  9  240.
#> 10  134.
#> # ℹ 21 more rows
#> 
#> $df9
#> # A tibble: 117 × 1
#>     Area
#>    <dbl>
#>  1  695.
#>  2 3871.
#>  3  778.
#>  4 1942.
#>  5 2316.
#>  6  888.
#>  7  376.
#>  8  110.
#>  9  548.
#> 10  756.
#> # ℹ 107 more rows
#> 
#> $df10
#> # A tibble: 28 × 1
#>     Area
#>    <dbl>
#>  1  339.
#>  2  548.
#>  3  227.
#>  4  191.
#>  5  193.
#>  6  653.
#>  7  455.
#>  8  424.
#>  9  172.
#> 10  259.
#> # ℹ 18 more rows
#> 
#> $df11
#> # A tibble: 182 × 1
#>     Area
#>    <dbl>
#>  1  691.
#>  2  669.
#>  3  658.
#>  4 2232.
#>  5  339.
#>  6  416.
#>  7  145.
#>  8  240.
#>  9 1227.
#> 10  242.
#> # ℹ 172 more rows
#> 
#> $df12
#> # A tibble: 109 × 1
#>     Area
#>    <dbl>
#>  1  807.
#>  2 1573.
#>  3 1993.
#>  4  194.
#>  5  343.
#>  6  761.
#>  7  776.
#>  8 1454.
#>  9  209.
#> 10  974.
#> # ℹ 99 more rows
#> 
#> $df13
#> # A tibble: 153 × 1
#>     Area
#>    <dbl>
#>  1  132.
#>  2 3112.
#>  3 1482.
#>  4 1060.
#>  5  778.
#>  6 1221.
#>  7  209.
#>  8  358.
#>  9  446.
#> 10 1623.
#> # ℹ 143 more rows
#> 
#> $df14
#> # A tibble: 119 × 1
#>     Area
#>    <dbl>
#>  1  976.
#>  2  444.
#>  3  119.
#>  4  235.
#>  5  642.
#>  6  677.
#>  7  642.
#>  8 7849.
#>  9  363.
#> 10  242.
#> # ℹ 109 more rows
#> 
#> $df15
#> # A tibble: 89 × 1
#>     Area
#>    <dbl>
#>  1  435.
#>  2 1225.
#>  3  396.
#>  4  413.
#>  5  363.
#>  6  354.
#>  7  392.
#>  8 3057.
#>  9  145.
#> 10 1786.
#> # ℹ 79 more rows
#> 
#> $df16
#> # A tibble: 85 × 1
#>     Area
#>    <dbl>
#>  1  809.
#>  2 1137.
#>  3 1971.
#>  4  556.
#>  5  833.
#>  6  539.
#>  7 1903.
#>  8  460.
#>  9 1342.
#> 10 1704.
#> # ℹ 75 more rows
#> 
#> $df17
#> # A tibble: 121 × 1
#>     Area
#>    <dbl>
#>  1  954.
#>  2  469.
#>  3 1339.
#>  4  449.
#>  5  792.
#>  6  530.
#>  7  590.
#>  8 1025.
#>  9  136.
#> 10  627.
#> # ℹ 111 more rows
#> 
#> $df18
#> # A tibble: 52 × 1
#>     Area
#>    <dbl>
#>  1  411.
#>  2  249.
#>  3  422.
#>  4  475.
#>  5 1153.
#>  6  341.
#>  7  262.
#>  8  341.
#>  9  601.
#> 10  605.
#> # ℹ 42 more rows
#> 
#> $df19
#> # A tibble: 151 × 1
#>     Area
#>    <dbl>
#>  1 2366.
#>  2  491.
#>  3  660.
#>  4 1047.
#>  5  128.
#>  6 1254.
#>  7 1144.
#>  8 1287.
#>  9  209.
#> 10 2740.
#> # ℹ 141 more rows
#> 
#> $df20
#> # A tibble: 97 × 1
#>     Area
#>    <dbl>
#>  1  878.
#>  2  330.
#>  3  458.
#>  4  532.
#>  5  238.
#>  6 1038.
#>  7  660.
#>  8  548.
#>  9  557.
#> 10  202.
#> # ℹ 87 more rows
#> 
#> $df21
#> # A tibble: 166 × 1
#>     Area
#>    <dbl>
#>  1  174.
#>  2  339.
#>  3 1806.
#>  4 1020.
#>  5 1203.
#>  6 2395.
#>  7 1009.
#>  8  556.
#>  9  110.
#> 10  534.
#> # ℹ 156 more rows
#> 
#> $df22
#> # A tibble: 94 × 1
#>     Area
#>    <dbl>
#>  1  310.
#>  2 2305.
#>  3  983.
#>  4  800.
#>  5 1267.
#>  6  884.
#>  7  754.
#>  8 1384.
#>  9 6361.
#> 10 1663.
#> # ℹ 84 more rows
#> 
#> $df23
#> # A tibble: 177 × 1
#>     Area
#>    <dbl>
#>  1 1373.
#>  2  339.
#>  3  136.
#>  4  636.
#>  5  943.
#>  6  996.
#>  7  961.
#>  8  359.
#>  9 1265.
#> 10 1489.
#> # ℹ 167 more rows
#> 
#> $df24
#> # A tibble: 160 × 1
#>     Area
#>    <dbl>
#>  1  770.
#>  2 1348.
#>  3  622.
#>  4  955.
#>  5  363.
#>  6  921.
#>  7 1542.
#>  8  999.
#>  9  310.
#> 10  513.
#> # ℹ 150 more rows
#> 
#> $df25
#> # A tibble: 111 × 1
#>     Area
#>    <dbl>
#>  1 1069.
#>  2  794.
#>  3 1073.
#>  4 1194.
#>  5  568.
#>  6  202.
#>  7  222.
#>  8  458.
#>  9  347.
#> 10 2978.
#> # ℹ 101 more rows
#> 
#> $df26
#> # A tibble: 87 × 1
#>     Area
#>    <dbl>
#>  1  352.
#>  2  413.
#>  3 1379.
#>  4 3407.
#>  5  807.
#>  6 1254.
#>  7  486.
#>  8 1175.
#>  9  211.
#> 10  418.
#> # ℹ 77 more rows
#> 
#> $df27
#> # A tibble: 131 × 1
#>     Area
#>    <dbl>
#>  1  820.
#>  2 1141.
#>  3  954.
#>  4  723.
#>  5  369.
#>  6  889.
#>  7  779.
#>  8  768.
#>  9  242.
#> 10  493.
#> # ℹ 121 more rows
#> 
#> $df28
#> # A tibble: 64 × 1
#>     Area
#>    <dbl>
#>  1  611.
#>  2  400.
#>  3  240.
#>  4  673.
#>  5  220.
#>  6  238.
#>  7  240.
#>  8  312.
#>  9  229.
#> 10 1032.
#> # ℹ 54 more rows
#> 
#> $df29
#> # A tibble: 127 × 1
#>     Area
#>    <dbl>
#>  1 2340.
#>  2  246.
#>  3  301.
#>  4 1867.
#>  5 4282.
#>  6  649.
#>  7  275.
#>  8 1669.
#>  9 2232.
#> 10  378.
#> # ℹ 117 more rows
#> 
#> $df30
#> # A tibble: 140 × 1
#>     Area
#>    <dbl>
#>  1 2090.
#>  2  662.
#>  3  508.
#>  4  460.
#>  5 1245.
#>  6  413.
#>  7 1799.
#>  8  778.
#>  9  347.
#> 10  772.
#> # ℹ 130 more rows
…
#> $df31
#> # A tibble: 8 × 1
#>    Area
#>   <dbl>
#> 1  117.
#> 2  185.
#> 3  436.
#> 4  462.
#> 5 3592.
#> 6  149.
#> 7  205.
#> 8  270.
#> 
#> $df32
#> # A tibble: 190 × 1
#>     Area
#>    <dbl>
#>  1  332.
#>  2  457.
#>  3  336.
#>  4  477.
#>  5  229.
#>  6  675.
#>  7 1465.
#>  8  303.
#>  9  998.
#> 10 2998.
#> # ℹ 180 more rows
#> 
#> $df33
#> # A tibble: 186 × 1
#>     Area
#>    <dbl>
#>  1  431.
#>  2  614.
#>  3  645.
#>  4  768.
#>  5  655.
#>  6 1682.
#>  7  789.
#>  8  933.
#>  9  130.
#> 10 1885.
#> # ℹ 176 more rows
#> 
#> $df34
#> # A tibble: 176 × 1
#>     Area
#>    <dbl>
#>  1  712.
#>  2  699.
#>  3 1551.
#>  4  306.
#>  5  596.
#>  6 1192.
#>  7  132.
#>  8  226.
#>  9  317.
#> 10  310.
#> # ℹ 166 more rows
#> 
#> $df35
#> # A tibble: 177 × 1
#>     Area
#>    <dbl>
#>  1  167.
#>  2  677.
#>  3  314.
#>  4  860.
#>  5  205.
#>  6 1111.
#>  7  622.
#>  8  645.
#>  9 2257.
#> 10  259.
#> # ℹ 167 more rows
#> 
#> $df36
#> # A tibble: 148 × 1
#>     Area
#>    <dbl>
#>  1 1471.
#>  2  924.
#>  3  442.
#>  4  768.
#>  5  215.
#>  6  933.
#>  7 1216.
#>  8  552.
#>  9  596.
#> 10 4738.
#> # ℹ 138 more rows
#> 
#> $df37
#> # A tibble: 147 × 1
#>     Area
#>    <dbl>
#>  1  185.
#>  2  348.
#>  3  455.
#>  4  367.
#>  5 2057.
#>  6 1621.
#>  7 2897.
#>  8 3308.
#>  9  405.
#> 10  631.
#> # ℹ 137 more rows
#> 
#> $df38
#> # A tibble: 109 × 1
#>     Area
#>    <dbl>
#>  1  623.
#>  2  293.
#>  3  545.
#>  4  543.
#>  5 1339.
#>  6 3007.
#>  7  598.
#>  8 2565.
#>  9 1331.
#> 10  508.
#> # ℹ 99 more rows
#> 
#> $df39
#> # A tibble: 122 × 1
#>     Area
#>    <dbl>
#>  1 1254.
#>  2  290.
#>  3 1427.
#>  4 1075.
#>  5 1509.
#>  6  713.
#>  7 1034.
#>  8  983.
#>  9  471.
#> 10  372.
#> # ℹ 112 more rows
#> 
#> $df40
#> # A tibble: 132 × 1
#>     Area
#>    <dbl>
#>  1  952.
#>  2 1045.
#>  3 2248.
#>  4  561.
#>  5  244.
#>  6  992.
#>  7  557.
#>  8  752.
#>  9  189.
#> 10  304.
#> # ℹ 122 more rows
#> 
#> $df41
#> # A tibble: 103 × 1
#>     Area
#>    <dbl>
#>  1  640.
#>  2  446.
#>  3  259.
#>  4  143.
#>  5 1078.
#>  6 1392.
#>  7  361.
#>  8 1370.
#>  9  574.
#> 10  139.
#> # ℹ 93 more rows
#> 
#> $df42
#> # A tibble: 208 × 1
#>     Area
#>    <dbl>
#>  1  548.
#>  2  246.
#>  3  867.
#>  4  361.
#>  5  389.
#>  6 1219.
#>  7 1529.
#>  8 1273.
#>  9  554.
#> 10 4119.
#> # ℹ 198 more rows
#> 
#> $df43
#> # A tibble: 188 × 1
#>     Area
#>    <dbl>
#>  1  264.
#>  2  800.
#>  3  759.
#>  4  585.
#>  5  550.
#>  6  642.
#>  7  200.
#>  8 1742.
#>  9  524.
#> 10  831.
#> # ℹ 178 more rows
#> 
#> $df44
#> # A tibble: 146 × 1
#>     Area
#>    <dbl>
#>  1  684.
#>  2  176.
#>  3  662.
#>  4 1091.
#>  5  222.
#>  6  761.
#>  7 1205.
#>  8 1661.
#>  9  559.
#> 10  583.
#> # ℹ 136 more rows
#> 
#> $df45
#> # A tibble: 171 × 1
#>     Area
#>    <dbl>
#>  1 1859.
#>  2  281.
#>  3 1172.
#>  4  548.
#>  5 2162.
#>  6  684.
#>  7  585.
#>  8 1254.
#>  9  279.
#> 10  735.
#> # ℹ 161 more rows
#> 
#> $df46
#> # A tibble: 172 × 1
#>     Area
#>    <dbl>
#>  1  752.
#>  2 1458.
#>  3  998.
#>  4 1418.
#>  5  504.
#>  6  226.
#>  7  275.
#>  8 1095.
#>  9 1269.
#> 10  537.
#> # ℹ 162 more rows
#> 
#> $df47
#> # A tibble: 161 × 1
#>     Area
#>    <dbl>
#>  1 1080.
#>  2  618.
#>  3 1423.
#>  4  260.
#>  5  662.
#>  6  378.
#>  7  976.
#>  8  748.
#>  9  746.
#> 10  385.
#> # ℹ 151 more rows
#> 
#> $df48
#> # A tibble: 176 × 1
#>     Area
#>    <dbl>
#>  1  339.
#>  2  372.
#>  3 2050.
#>  4  240.
#>  5  165.
#>  6  358.
#>  7 1080.
#>  8 1221.
#>  9  237.
#> 10  315.
#> # ℹ 166 more rows
#> 
#> $df49
#> # A tibble: 150 × 1
#>     Area
#>    <dbl>
#>  1  587.
#>  2  728.
#>  3  473.
#>  4  660.
#>  5 2921.
#>  6 2496.
#>  7  735.
#>  8  347.
#>  9  200.
#> 10 2089.
#> # ℹ 140 more rows
#> 
#> $df50
#> # A tibble: 206 × 1
#>     Area
#>    <dbl>
#>  1  847.
#>  2  358.
#>  3 2452.
#>  4  235.
#>  5  974.
#>  6 1058.
#>  7  253.
#>  8  517.
#>  9  855.
#> 10  554.
#> # ℹ 196 more rows
#> 
#> $df51
#> # A tibble: 158 × 1
#>     Area
#>    <dbl>
#>  1 1053.
#>  2  141.
#>  3  678.
#>  4  237.
#>  5  380.
#>  6 1384.
#>  7  853.
#>  8  407.
#>  9  165.
#> 10 3701.
#> # ℹ 148 more rows
#> 
#> $df52
#> # A tibble: 44 × 1
#>     Area
#>    <dbl>
#>  1  352.
#>  2  314.
#>  3  583.
#>  4  325.
#>  5  345.
#>  6  271.
#>  7  185.
#>  8  172.
#>  9  534.
#> 10  242.
#> # ℹ 34 more rows
#> 
#> $df53
#> # A tibble: 231 × 1
#>     Area
#>    <dbl>
#>  1 1573.
#>  2  117.
#>  3  889.
#>  4  827.
#>  5  238.
#>  6  400.
#>  7  422.
#>  8 1969.
#>  9  374.
#> 10  356.
#> # ℹ 221 more rows
#> 
#> $df54
#> # A tibble: 180 × 1
#>     Area
#>    <dbl>
#>  1  504.
#>  2  233.
#>  3  464.
#>  4  380.
#>  5  647.
#>  6  136.
#>  7  640.
#>  8 1867.
#>  9 1755.
#> 10  323.
#> # ℹ 170 more rows
#> 
#> $df55
#> # A tibble: 183 × 1
#>     Area
#>    <dbl>
#>  1  922.
#>  2 2056.
#>  3  259.
#>  4  273.
#>  5 2061.
#>  6 1230.
#>  7 2686.
#>  8 3536.
#>  9  935.
#> 10  592.
#> # ℹ 173 more rows
#> 
#> $df56
#> # A tibble: 162 × 1
#>     Area
#>    <dbl>
#>  1  363.
#>  2  413.
#>  3 1212.
#>  4  941.
#>  5 8201.
#>  6  937.
#>  7 1661.
#>  8 1564.
#>  9  205.
#> 10  345.
#> # ℹ 152 more rows
#> 
#> $df57
#> # A tibble: 164 × 1
#>     Area
#>    <dbl>
#>  1  550.
#>  2  519.
#>  3  878.
#>  4  273.
#>  5  910.
#>  6  429.
#>  7  292.
#>  8  435.
#>  9  535.
#> 10  512.
#> # ℹ 154 more rows
#> 
#> $df58
#> # A tibble: 136 × 1
#>     Area
#>    <dbl>
#>  1 1610.
#>  2  910.
#>  3  655.
#>  4  539.
#>  5 2305.
#>  6  726.
#>  7  831.
#>  8 1333.
#>  9 1122.
#> 10  226.
#> # ℹ 126 more rows
#> 
#> $df59
#> # A tibble: 148 × 1
#>     Area
#>    <dbl>
#>  1  167.
#>  2 1207.
#>  3 1174.
#>  4  541.
#>  5  693.
#>  6  974.
#>  7  767.
#>  8 7029.
#>  9  163.
#> 10 2188.
#> # ℹ 138 more rows
#> 
#> $df60
#> # A tibble: 149 × 1
#>     Area
#>    <dbl>
#>  1  191.
#>  2  772.
#>  3  856.
#>  4 1144.
#>  5 2863.
#>  6 1084.
#>  7  249.
#>  8  495.
#>  9  501.
#> 10 1779.
#> # ℹ 139 more rows
#> 
#> $df61
#> # A tibble: 177 × 1
#>     Area
#>    <dbl>
#>  1  524.
#>  2  721.
#>  3  726.
#>  4  693.
#>  5  618.
#>  6 1043.
#>  7 1058.
#>  8 1205.
#>  9  200.
#> 10  811.
#> # ℹ 167 more rows
#> 
#> $df62
#> # A tibble: 160 × 1
#>     Area
#>    <dbl>
#>  1  458.
#>  2  271.
#>  3  387.
#>  4 1067.
#>  5  312.
#>  6  132.
#>  7 1203.
#>  8  169.
#>  9  594.
#> 10  425.
#> # ℹ 150 more rows
…
